[
    {
        "model-name": "tbl_preguntas",
        "resource-file": "tbl_preguntas.json",
        "table-name": "tbl_preguntas"
    },
    {
        "model-name": "tbl_preguntas_grupos",
        "resource-file": "tbl_preguntas_grupos.json",
        "table-name": "tbl_preguntas_grupos"
    }
]