[
    {
        "model-name": "tbl_preguntas",
        "resource-file": "\\Applications\\XAMPP\\xamppfiles\\htdocs\\covid19\\resources\\laravel-code-generator\\sources\\tbl_preguntas.json",
        "table-name": "tbl_preguntas",
        "migrations": [
            {
                "name": "2020_03_20_104214_create_tbl_preguntas_table",
                "class-name": "CreateTblPreguntasTable",
                "path": "/Applications/XAMPP/xamppfiles/htdocs/covid19/database/migrations/2020_03_20_104214_create_tbl_preguntas_table.php",
                "is-create": true,
                "is-virtual": true,
                "is-organized": false,
                "with-soft-delete": false,
                "without-timestamps": false,
                "resource": {
                    "fields": [
                        {
                            "name": "id",
                            "labels": "Id",
                            "html-type": "text",
                            "css-class": "",
                            "options": {},
                            "html-value": null,
                            "validation": "",
                            "is-on-index": false,
                            "is-on-show": false,
                            "is-on-form": false,
                            "data-type": "string",
                            "data-type-params": [],
                            "data-value": null,
                            "is-index": false,
                            "is-unique": false,
                            "is-primary": true,
                            "comment": null,
                            "is-nullable": false,
                            "is-header": false,
                            "is-unsigned": true,
                            "is-auto-increment": true,
                            "is-inline-options": false,
                            "is-date": false,
                            "date-format": "",
                            "cast-as": "",
                            "placeholder": "Enter id here...",
                            "delimiter": "; ",
                            "range": [],
                            "foreign-relation": null,
                            "foreign-constraint": null,
                            "on-store": null,
                            "on-update": null,
                            "api-key": "id",
                            "is-api-visible": true,
                            "api-description": "The id of the model."
                        },
                        {
                            "name": "nombre",
                            "labels": "Nombre",
                            "html-type": "text",
                            "css-class": "",
                            "options": {},
                            "html-value": null,
                            "validation": "required|string|min:1|max:191",
                            "is-on-index": true,
                            "is-on-show": true,
                            "is-on-form": true,
                            "data-type": "string",
                            "data-type-params": [
                                191
                            ],
                            "data-value": null,
                            "is-index": false,
                            "is-unique": false,
                            "is-primary": false,
                            "comment": null,
                            "is-nullable": false,
                            "is-header": false,
                            "is-unsigned": false,
                            "is-auto-increment": false,
                            "is-inline-options": false,
                            "is-date": false,
                            "date-format": "",
                            "cast-as": "",
                            "placeholder": "Enter nombre here...",
                            "delimiter": "; ",
                            "range": [],
                            "foreign-relation": null,
                            "foreign-constraint": null,
                            "on-store": null,
                            "on-update": null,
                            "api-key": "nombre",
                            "is-api-visible": true,
                            "api-description": "The nombre of the model."
                        },
                        {
                            "name": "nivel",
                            "labels": "Nivel",
                            "html-type": "number",
                            "css-class": "",
                            "options": {},
                            "html-value": null,
                            "validation": "nullable|numeric|min:-2147483648|max:2147483647",
                            "is-on-index": true,
                            "is-on-show": true,
                            "is-on-form": true,
                            "data-type": "int",
                            "data-type-params": [],
                            "data-value": "NULL",
                            "is-index": false,
                            "is-unique": false,
                            "is-primary": false,
                            "comment": null,
                            "is-nullable": true,
                            "is-header": false,
                            "is-unsigned": false,
                            "is-auto-increment": false,
                            "is-inline-options": false,
                            "is-date": false,
                            "date-format": "",
                            "cast-as": "",
                            "placeholder": "Enter nivel here...",
                            "delimiter": "; ",
                            "range": [],
                            "foreign-relation": null,
                            "foreign-constraint": null,
                            "on-store": null,
                            "on-update": null,
                            "api-key": "nivel",
                            "is-api-visible": true,
                            "api-description": "The nivel of the model."
                        },
                        {
                            "name": "id_preguntas_grupos",
                            "labels": "Id Preguntas Grupos",
                            "html-type": "text",
                            "css-class": "",
                            "options": {},
                            "html-value": null,
                            "validation": "required|string|min:1",
                            "is-on-index": true,
                            "is-on-show": true,
                            "is-on-form": true,
                            "data-type": "string",
                            "data-type-params": [],
                            "data-value": null,
                            "is-index": true,
                            "is-unique": false,
                            "is-primary": false,
                            "comment": null,
                            "is-nullable": false,
                            "is-header": false,
                            "is-unsigned": true,
                            "is-auto-increment": false,
                            "is-inline-options": false,
                            "is-date": false,
                            "date-format": "",
                            "cast-as": "",
                            "placeholder": "Enter id preguntas grupos here...",
                            "delimiter": "; ",
                            "range": [],
                            "foreign-relation": null,
                            "foreign-constraint": null,
                            "on-store": null,
                            "on-update": null,
                            "api-key": "id_preguntas_grupos",
                            "is-api-visible": true,
                            "api-description": "The id preguntas grupos of the model."
                        },
                        {
                            "name": "created_at",
                            "labels": "Created At",
                            "html-type": "text",
                            "css-class": "",
                            "options": {},
                            "html-value": null,
                            "validation": "",
                            "is-on-index": false,
                            "is-on-show": true,
                            "is-on-form": false,
                            "data-type": "timestamp",
                            "data-type-params": [],
                            "data-value": "NULL",
                            "is-index": false,
                            "is-unique": false,
                            "is-primary": false,
                            "comment": null,
                            "is-nullable": true,
                            "is-header": false,
                            "is-unsigned": false,
                            "is-auto-increment": false,
                            "is-inline-options": false,
                            "is-date": false,
                            "date-format": "j/n/Y g:i A",
                            "cast-as": "",
                            "placeholder": "Enter created at here...",
                            "delimiter": "; ",
                            "range": [],
                            "foreign-relation": null,
                            "foreign-constraint": null,
                            "on-store": null,
                            "on-update": null,
                            "api-key": "created_at",
                            "is-api-visible": false,
                            "api-description": "The created at of the model."
                        },
                        {
                            "name": "updated_at",
                            "labels": "Updated At",
                            "html-type": "text",
                            "css-class": "",
                            "options": {},
                            "html-value": null,
                            "validation": "",
                            "is-on-index": false,
                            "is-on-show": true,
                            "is-on-form": false,
                            "data-type": "timestamp",
                            "data-type-params": [],
                            "data-value": "NULL",
                            "is-index": false,
                            "is-unique": false,
                            "is-primary": false,
                            "comment": null,
                            "is-nullable": true,
                            "is-header": false,
                            "is-unsigned": false,
                            "is-auto-increment": false,
                            "is-inline-options": false,
                            "is-date": false,
                            "date-format": "j/n/Y g:i A",
                            "cast-as": "",
                            "placeholder": "Enter updated at here...",
                            "delimiter": "; ",
                            "range": [],
                            "foreign-relation": null,
                            "foreign-constraint": null,
                            "on-store": null,
                            "on-update": null,
                            "api-key": "updated_at",
                            "is-api-visible": false,
                            "api-description": "The updated at of the model."
                        }
                    ],
                    "relations": [
                        {
                            "name": "tblCuestionarioXRespuestum",
                            "type": "hasOne",
                            "params": [
                                "App\\Models\\TblCuestionarioXRespuestum",
                                "id_pregunta",
                                "id"
                            ],
                            "field": "id"
                        }
                    ],
                    "indexes": [],
                    "auto-manage-created-and-updated-at": true,
                    "table-name": "tbl_preguntas",
                    "protection": {
                        "is-model-protected": false,
                        "is-controller-protected": false,
                        "is-api-resource-protected": false,
                        "is-api-resource-collection-protected": false,
                        "is-api-documentation-protected": false,
                        "is-api-documentation-controller-protected": false,
                        "is-form-request-protected": false,
                        "is-languages-protected": false,
                        "is-form-view-protected": false,
                        "is-index-view-protected": false,
                        "is-create-view-protected": false,
                        "is-edit-view-protected": false,
                        "is-show-view-protected": false
                    },
                    "api-documentation": {
                        "access_token_with_bearer": "The access token prefixed with the \"Bearer \" key word.",
                        "index_route_description": "Retrieve existing tbl preguntas.",
                        "index_route_response_description": "The API's response will be JSON based data. The JSON object will be structured as follow",
                        "the_key_is_the_model_property_and_the_value_is_the_model_value": "The array's key is the tbl preguntas property name where the value is the assigned value to the retrieved tbl preguntas.",
                        "link_to_retrieve_first_page": "Link to retrieve first page.",
                        "link_to_retrieve_last_page": "Link to retrieve last page.",
                        "link_to_retrieve_previous_page": "Link to retrieve previous page.",
                        "link_to_retrieve_next_page": "Link to retrieve next page.",
                        "the_number_of_current_page": "The number of current page.",
                        "the_index_of_the_first_retrieved_item": "The index of first retrieved tbl preguntas.",
                        "the_number_of_the_last_page": "The number of the last page.",
                        "the_base_link_to_the_resource": "The base link to the api resource.",
                        "the_number_of_models_per_page": "The number of tbl preguntas per page.",
                        "the_index_of_the_last_retrieved_item": "The index of last retrieved tbl preguntas.",
                        "the_total_of_available_pages": "The total of the available pages.",
                        "store_route_description": "Create new tbl preguntas.",
                        "store_route_response_description": "The API's response will be JSON based data. The JSON object will be structured as follow",
                        "update_route_description": "Update existsing tbl preguntas.",
                        "update_route_response_description": "The API's response will be JSON based data. The JSON object will be structured as follow",
                        "show_route_description": "Retrieve existsing tbl preguntas.",
                        "show_route_response_description": "The API's response will be JSON based data. The JSON object will be structured as follow",
                        "the_id_of_model_to_retrieve": "The unique id of the tbl preguntas to retrieve",
                        "destroy_route_description": "Delete existsing tbl preguntas.",
                        "destroy_route_response_description": "The API's response will be JSON based data. The JSON object will be structured as follow",
                        "the_id_of_model_to_delete": "The id of the tbl preguntas to delete.",
                        "general_description": "Allows you to list, create, edit, show and delete tbl preguntas.",
                        "indicate_whether_the_request_was_successful_or_not": "Indicate whether the request was successful or not.",
                        "the_id_of_the_model": "The id of the tbl preguntas.",
                        "this_parameter_must_be_present_in_the_request": "This parameter must be present in the request.",
                        "the_request_failed_validation": "The request failed validation.",
                        "list_of_the_invalid_errors": "List of the invalid errors.",
                        "the_requested_model_does_not_exists": "The requested tbl preguntas does not exists.",
                        "the_user_does_not_have_permission_to_access_the_requested_resource": "User does not have permission to access the requested resource."
                    }
                }
            }
        ]
    },
    {
        "model-name": "tbl_preguntas_grupos",
        "resource-file": "\\Applications\\XAMPP\\xamppfiles\\htdocs\\covid19\\resources\\laravel-code-generator\\sources\\tbl_preguntas_grupos.json",
        "table-name": "tbl_preguntas_grupos",
        "migrations": [
            {
                "name": "2020_03_20_105531_create_tbl_preguntas_grupos_table",
                "class-name": "CreateTblPreguntasGruposTable",
                "path": "/Applications/XAMPP/xamppfiles/htdocs/covid19/database/migrations/2020_03_20_105531_create_tbl_preguntas_grupos_table.php",
                "is-create": true,
                "is-virtual": true,
                "is-organized": false,
                "with-soft-delete": false,
                "without-timestamps": false,
                "resource": {
                    "fields": [
                        {
                            "name": "id",
                            "labels": "Id",
                            "html-type": "text",
                            "css-class": "",
                            "options": {},
                            "html-value": null,
                            "validation": "",
                            "is-on-index": false,
                            "is-on-show": false,
                            "is-on-form": false,
                            "data-type": "string",
                            "data-type-params": [],
                            "data-value": null,
                            "is-index": false,
                            "is-unique": false,
                            "is-primary": true,
                            "comment": null,
                            "is-nullable": false,
                            "is-header": false,
                            "is-unsigned": true,
                            "is-auto-increment": true,
                            "is-inline-options": false,
                            "is-date": false,
                            "date-format": "",
                            "cast-as": "",
                            "placeholder": "Enter id here...",
                            "delimiter": "; ",
                            "range": [],
                            "foreign-relation": null,
                            "foreign-constraint": null,
                            "on-store": null,
                            "on-update": null,
                            "api-key": "id",
                            "is-api-visible": true,
                            "api-description": "The id of the model."
                        },
                        {
                            "name": "nombre",
                            "labels": "Nombre",
                            "html-type": "text",
                            "css-class": "",
                            "options": {},
                            "html-value": null,
                            "validation": "required|string|min:1|max:191",
                            "is-on-index": true,
                            "is-on-show": true,
                            "is-on-form": true,
                            "data-type": "string",
                            "data-type-params": [
                                191
                            ],
                            "data-value": null,
                            "is-index": false,
                            "is-unique": false,
                            "is-primary": false,
                            "comment": null,
                            "is-nullable": false,
                            "is-header": false,
                            "is-unsigned": false,
                            "is-auto-increment": false,
                            "is-inline-options": false,
                            "is-date": false,
                            "date-format": "",
                            "cast-as": "",
                            "placeholder": "Enter nombre here...",
                            "delimiter": "; ",
                            "range": [],
                            "foreign-relation": null,
                            "foreign-constraint": null,
                            "on-store": null,
                            "on-update": null,
                            "api-key": "nombre",
                            "is-api-visible": true,
                            "api-description": "The nombre of the model."
                        },
                        {
                            "name": "created_at",
                            "labels": "Created At",
                            "html-type": "text",
                            "css-class": "",
                            "options": {},
                            "html-value": null,
                            "validation": "",
                            "is-on-index": false,
                            "is-on-show": true,
                            "is-on-form": false,
                            "data-type": "timestamp",
                            "data-type-params": [],
                            "data-value": "NULL",
                            "is-index": false,
                            "is-unique": false,
                            "is-primary": false,
                            "comment": null,
                            "is-nullable": true,
                            "is-header": false,
                            "is-unsigned": false,
                            "is-auto-increment": false,
                            "is-inline-options": false,
                            "is-date": false,
                            "date-format": "j/n/Y g:i A",
                            "cast-as": "",
                            "placeholder": "Enter created at here...",
                            "delimiter": "; ",
                            "range": [],
                            "foreign-relation": null,
                            "foreign-constraint": null,
                            "on-store": null,
                            "on-update": null,
                            "api-key": "created_at",
                            "is-api-visible": false,
                            "api-description": "The created at of the model."
                        },
                        {
                            "name": "updated_at",
                            "labels": "Updated At",
                            "html-type": "text",
                            "css-class": "",
                            "options": {},
                            "html-value": null,
                            "validation": "",
                            "is-on-index": false,
                            "is-on-show": true,
                            "is-on-form": false,
                            "data-type": "timestamp",
                            "data-type-params": [],
                            "data-value": "NULL",
                            "is-index": false,
                            "is-unique": false,
                            "is-primary": false,
                            "comment": null,
                            "is-nullable": true,
                            "is-header": false,
                            "is-unsigned": false,
                            "is-auto-increment": false,
                            "is-inline-options": false,
                            "is-date": false,
                            "date-format": "j/n/Y g:i A",
                            "cast-as": "",
                            "placeholder": "Enter updated at here...",
                            "delimiter": "; ",
                            "range": [],
                            "foreign-relation": null,
                            "foreign-constraint": null,
                            "on-store": null,
                            "on-update": null,
                            "api-key": "updated_at",
                            "is-api-visible": false,
                            "api-description": "The updated at of the model."
                        }
                    ],
                    "relations": [],
                    "indexes": [],
                    "auto-manage-created-and-updated-at": true,
                    "table-name": "tbl_preguntas_grupos",
                    "protection": {
                        "is-model-protected": false,
                        "is-controller-protected": false,
                        "is-api-resource-protected": false,
                        "is-api-resource-collection-protected": false,
                        "is-api-documentation-protected": false,
                        "is-api-documentation-controller-protected": false,
                        "is-form-request-protected": false,
                        "is-languages-protected": false,
                        "is-form-view-protected": false,
                        "is-index-view-protected": false,
                        "is-create-view-protected": false,
                        "is-edit-view-protected": false,
                        "is-show-view-protected": false
                    },
                    "api-documentation": {
                        "access_token_with_bearer": "The access token prefixed with the \"Bearer \" key word.",
                        "index_route_description": "Retrieve existing tbl preguntas grupos.",
                        "index_route_response_description": "The API's response will be JSON based data. The JSON object will be structured as follow",
                        "the_key_is_the_model_property_and_the_value_is_the_model_value": "The array's key is the tbl preguntas grupos property name where the value is the assigned value to the retrieved tbl preguntas grupos.",
                        "link_to_retrieve_first_page": "Link to retrieve first page.",
                        "link_to_retrieve_last_page": "Link to retrieve last page.",
                        "link_to_retrieve_previous_page": "Link to retrieve previous page.",
                        "link_to_retrieve_next_page": "Link to retrieve next page.",
                        "the_number_of_current_page": "The number of current page.",
                        "the_index_of_the_first_retrieved_item": "The index of first retrieved tbl preguntas grupos.",
                        "the_number_of_the_last_page": "The number of the last page.",
                        "the_base_link_to_the_resource": "The base link to the api resource.",
                        "the_number_of_models_per_page": "The number of tbl preguntas grupos per page.",
                        "the_index_of_the_last_retrieved_item": "The index of last retrieved tbl preguntas grupos.",
                        "the_total_of_available_pages": "The total of the available pages.",
                        "store_route_description": "Create new tbl preguntas grupos.",
                        "store_route_response_description": "The API's response will be JSON based data. The JSON object will be structured as follow",
                        "update_route_description": "Update existsing tbl preguntas grupos.",
                        "update_route_response_description": "The API's response will be JSON based data. The JSON object will be structured as follow",
                        "show_route_description": "Retrieve existsing tbl preguntas grupos.",
                        "show_route_response_description": "The API's response will be JSON based data. The JSON object will be structured as follow",
                        "the_id_of_model_to_retrieve": "The unique id of the tbl preguntas grupos to retrieve",
                        "destroy_route_description": "Delete existsing tbl preguntas grupos.",
                        "destroy_route_response_description": "The API's response will be JSON based data. The JSON object will be structured as follow",
                        "the_id_of_model_to_delete": "The id of the tbl preguntas grupos to delete.",
                        "general_description": "Allows you to list, create, edit, show and delete tbl preguntas grupos.",
                        "indicate_whether_the_request_was_successful_or_not": "Indicate whether the request was successful or not.",
                        "the_id_of_the_model": "The id of the tbl preguntas grupos.",
                        "this_parameter_must_be_present_in_the_request": "This parameter must be present in the request.",
                        "the_request_failed_validation": "The request failed validation.",
                        "list_of_the_invalid_errors": "List of the invalid errors.",
                        "the_requested_model_does_not_exists": "The requested tbl preguntas grupos does not exists.",
                        "the_user_does_not_have_permission_to_access_the_requested_resource": "User does not have permission to access the requested resource."
                    }
                }
            }
        ]
    }
]